module gitlab.com/blog_najot_talim/medium_user_service

go 1.19

require (
	github.com/Shopify/sarama v1.37.2
	github.com/bxcodec/faker/v4 v4.0.0-beta.3
	github.com/go-redis/redis/v9 v9.0.0-rc.2
	github.com/golang-jwt/jwt v3.2.2+incompatible
	github.com/golang/protobuf v1.5.2
	github.com/google/uuid v1.3.0
	github.com/jmoiron/sqlx v1.3.5
	github.com/joho/godotenv v1.4.0
	github.com/lib/pq v1.10.7
	github.com/sirupsen/logrus v1.9.0
	github.com/spf13/viper v1.14.0
	github.com/stretchr/testify v1.8.1
	golang.org/x/crypto v0.0.0-20220722155217-630584e8d5aa
	google.golang.org/grpc v1.50.1
	google.golang.org/protobuf v1.28.1
)

require (
	github.com/cespare/xxhash/v2 v2.1.2 // indirect
	github.com/cloudevents/sdk-go/protocol/kafka_sarama/v2 v2.12.0 // indirect
	github.com/cloudevents/sdk-go/v2 v2.12.0 // indirect
	github.com/davecgh/go-spew v1.1.1 // indirect
	github.com/dgryski/go-rendezvous v0.0.0-20200823014737-9f7001d12a5f // indirect
	github.com/eapache/go-resiliency v1.3.0 // indirect
	github.com/eapache/go-xerial-snappy v0.0.0-20180814174437-776d5712da21 // indirect
	github.com/eapache/queue v1.1.0 // indirect
	github.com/fsnotify/fsnotify v1.6.0 // indirect
	github.com/golang/snappy v0.0.4 // indirect
	github.com/hashicorp/errwrap v1.0.0 // indirect
	github.com/hashicorp/go-multierror v1.1.1 // indirect
	github.com/hashicorp/go-uuid v1.0.3 // indirect
	github.com/hashicorp/hcl v1.0.0 // indirect
	github.com/jcmturner/aescts/v2 v2.0.0 // indirect
	github.com/jcmturner/dnsutils/v2 v2.0.0 // indirect
	github.com/jcmturner/gofork v1.7.6 // indirect
	github.com/jcmturner/gokrb5/v8 v8.4.3 // indirect
	github.com/jcmturner/rpc/v2 v2.0.3 // indirect
	github.com/json-iterator/go v1.1.12 // indirect
	github.com/klauspost/compress v1.15.11 // indirect
	github.com/magiconair/properties v1.8.6 // indirect
	github.com/mitchellh/mapstructure v1.5.0 // indirect
	github.com/modern-go/concurrent v0.0.0-20180306012644-bacd9c7ef1dd // indirect
	github.com/modern-go/reflect2 v1.0.2 // indirect
	github.com/pelletier/go-toml v1.9.5 // indirect
	github.com/pelletier/go-toml/v2 v2.0.5 // indirect
	github.com/pierrec/lz4/v4 v4.1.17 // indirect
	github.com/pmezard/go-difflib v1.0.0 // indirect
	github.com/rcrowley/go-metrics v0.0.0-20201227073835-cf1acfcdf475 // indirect
	github.com/robfig/cron v1.2.0 // indirect
	github.com/spf13/afero v1.9.2 // indirect
	github.com/spf13/cast v1.5.0 // indirect
	github.com/spf13/jwalterweatherman v1.1.0 // indirect
	github.com/spf13/pflag v1.0.5 // indirect
	github.com/subosito/gotenv v1.4.1 // indirect
	go.uber.org/atomic v1.9.0 // indirect
	go.uber.org/multierr v1.8.0 // indirect
	go.uber.org/zap v1.21.0 // indirect
	golang.org/x/net v0.2.0 // indirect
	golang.org/x/sys v0.2.0 // indirect
	golang.org/x/text v0.4.0 // indirect
	google.golang.org/genproto v0.0.0-20221024183307-1bc688fe9f3e // indirect
	gopkg.in/ini.v1 v1.67.0 // indirect
	gopkg.in/yaml.v2 v2.4.0 // indirect
	gopkg.in/yaml.v3 v3.0.1 // indirect
)
